…
  Number of car owned by the household

- asset_truck:

  Number of trucks owned by the household

## See also

[df_household_roster](https://yng-me.github.io/mpindex/reference/df_household_roster.md)

## Examples

``` r
df_household
#> # A tibble: 198 × 21
#>    uuid            class drinking_water toilet with_child_died  roof walls floor
#>    <chr>           <chr>          <int>  <int>           <int> <int> <int> <int>
#>  1 5dbec60a-ebda-… Rural              1      1               2     1     1     1
#>  2 8b70c208-8642-… Rural              1      1               2     1     1     1
#>  3 aa7cb64d-ba16-… Rural              1      1               2     1     3     1
#>  4 df3e5c9b-7218-… Rural              1      1               2     1     3     1
#>  5 57babe6a-c163-… Rural              1      1               2     1     3     1
#>  6 ba3f75cd-102d-… Rural              1      1               2     1     5     4
#>  7 291c03d9-7947-… Rural              1      1               2     1     5     1
#>  8 b8d1b52e-2b5d-… Rural              1      1               2     1     1     1
#>  9 2e80bf1a-03e9-… Rural              1      1               2     1     3     1
#> 10 208992f0-9c6d-… Rural              1      1               2     1     1     1
#> # ℹ 188 more rows
#> # ℹ 13 more variables: electricity <int>, cooking_fuel <int>,
#> #   asset_refrigerator <int>, asset_radio <int>, asset_tv <int>,
#> #   asset_telephone <int>, asset_mobile_phone <int>, asset_animal_cart <int>,
#> #   asset_computer <int>, asset_motorcycle <int>, asset_bicycle <int>,
#> #   asset_car <int>, asset_truck <int>
```
